Grade analysis
…
Question 10

grades2 <- grades |> pivot_longer(cols=3:32, names_to="name", values_to="value")

Question 11

missing_grades2 <- grades2 |> group_by(Id) |> reframe(N=is.na(value))
missing_grades2 |> group_by(Id) |> summarise(exam_missed=sum(N==TRUE))

# A tibble: 729 × 2
      Id exam_missed
   <dbl>       <int>
 1     1          10
 2     2          15
 3     3           6
 4     4           0
 5     5          19
 6     6           1
 7     7          11
 8     8           4
 9     9           6
10    10           3
# ℹ 719 more rows
…
grp_8
2

grp_9
5

Question 14

online_grades <- grades[, -c(3:13)]
online_grades_long <- online_grades |> pivot_longer(cols=3:21, names_to = "Online Exam", values_to = "grades")

miss_online_grades <- online_grades_long |> group_by(Id) |> reframe(nb_miss=is.na(grades))
miss_online_grades |> group_by(Id) |> summarise(nb=sum(nb_miss==TRUE))

# A tibble: 729 × 2
      Id    nb
   <dbl> <int>
 1     1     9
 2     2    14
 3     3     4
 4     4     0
 5     5    19
 6     6     1
 7     7    10
 8     8     3
 9     9     6
10    10     3
# ℹ 719 more rows
…
